Division,WeightClassKg,Place,Name,Team,BodyweightKg,Best3SquatKg,Best3BenchKg,Best3DeadliftKg,TotalKg,Equipment,Event,Sex
Boys,51.71,1,Preston Fox,Lampasas,51.07,136.08,88.45,151.95,376.48,Single-ply,SBD,M
Boys,51.71,2,Al Gardner,Sealy,50.71,147.42,74.84,151.95,374.21,Single-ply,SBD,M
Boys,51.71,3,Cody Burkland,Sealy,51.07,108.86,74.84,136.08,319.78,Single-ply,SBD,M
Boys,51.71,4,Shiloh George,Navasota,50.44,108.86,72.57,129.27,310.71,Single-ply,SBD,M
Boys,51.71,5,Kyle Arriola,Lampasas,50.89,108.86,72.57,124.74,306.17,Single-ply,SBD,M
Boys,51.71,6,Colt Baranowski,Smithville,44.72,120.2,54.43,124.74,299.37,Single-ply,SBD,M
Boys,51.71,7,Mason Johnson,Gatesville,49.44,97.52,61.23,120.2,278.96,Single-ply,SBD,M
Boys,51.71,8,Marshall Schmitz,Brownwood,46.27,102.06,52.16,111.13,265.35,Single-ply,SBD,M
Boys,51.71,9,Carson Osborne,Glen Rose,50.8,102.06,47.63,111.13,260.82,Single-ply,SBD,M
Boys,51.71,10,Zane Timpson,Smithville,51.35,79.38,58.97,108.86,247.21,Single-ply,SBD,M
Boys,51.71,DQ,Jose Gonzalez #2,Hillsboro,50.08,113.4,,,,Single-ply,SBD,M
Boys,51.71,DQ,Horatio Huerta,Salado,48.99,,,,,Single-ply,SBD,M
Boys,55.79,1,Diego Rivera,Mexia,54.25,195.04,115.67,183.7,494.42,Single-ply,SBD,M
Boys,55.79,2,Noah Pachicano,Taylor,53.52,181.44,106.59,158.76,446.79,Single-ply,SBD,M
Boys,55.79,3,Eduardo Perez,Venus,54.43,174.63,90.72,165.56,430.91,Single-ply,SBD,M
Boys,55.79,4,Philip Sharp,Robinson,55.34,151.95,95.25,183.7,430.91,Single-ply,SBD,M
Boys,55.79,5,Jordan Bass,Godley,55.79,156.49,86.18,142.88,385.55,Single-ply,SBD,M
Boys,55.79,6,Payton Melcor,Liberty Hill,55.16,149.69,74.84,145.15,369.68,Single-ply,SBD,M
Boys,55.79,7,John Pinkerton,Wimberley,54.7,124.74,74.84,136.08,335.66,Single-ply,SBD,M
Boys,55.79,8,Noe Martinez,Burnet,54.43,124.74,77.11,131.54,333.39,Single-ply,SBD,M
Boys,55.79,9,Wyatt Churchman,China Spring,55.79,102.06,70.31,142.88,315.25,Single-ply,SBD,M
Boys,55.79,10,Glen Gent,Glen Rose,53.98,104.33,52.16,131.54,288.03,Single-ply,SBD,M
Boys,,NS,Alex Schafer,Venus,,,,,,Single-ply,SBD,M
Boys,55.79,DQ,Travis Potter,Gatesville,53.98,147.42,72.57,,,Single-ply,SBD,M
Boys,55.79,DQ,Juan Padron,Navasota,53.43,,,,,Single-ply,SBD,M
Boys,59.87,1,Dakota Cavazos,Lampasas,58.88,165.56,120.2,172.37,458.13,Single-ply,SBD,M
Boys,59.87,2,Frank Cobio,Brookshire Royal,58.88,167.83,106.59,174.63,449.06,Single-ply,SBD,M
Boys,59.87,3,Ian Campbell,Navasota,57.24,167.83,120.2,154.22,442.25,Single-ply,SBD,M
Boys,59.87,4,Marwin Perez,Brownwood,58.06,158.76,113.4,170.1,442.25,Single-ply,SBD,M
Boys,59.87,5,Ty'rus Jones,Brownwood,58.51,161.03,99.79,172.37,433.18,Single-ply,SBD,M
Boys,59.87,6,Dillon Graves,Glen Rose,58.51,158.76,104.33,163.29,426.38,Single-ply,SBD,M
Boys,59.87,7,Rodrigo Hernandez,Hillsboro,57.97,156.49,92.99,170.1,419.57,Single-ply,SBD,M
Boys,59.87,8,Quint Pincelli,Llano,59.87,147.42,97.52,165.56,410.5,Single-ply,SBD,M
Boys,59.87,9,Dylan Wilson #2,Burnet,58.79,151.95,83.91,136.08,371.95,Single-ply,SBD,M
Boys,59.87,10,Ethan Rodriguez,Lorena,58.51,140.61,70.31,154.22,365.14,Single-ply,SBD,M
Boys,59.87,11,Ricardo Garcia,Mexia,58.51,138.35,74.84,145.15,358.34,Single-ply,SBD,M
Boys,59.87,DQ,Shawnpail Fields,Taylor,57.97,,,,,Single-ply,SBD,M
Boys,67.13,1,Isaiah Mesa,Taylor,65.23,258.55,138.35,238.14,635.03,Single-ply,SBD,M
Boys,67.13,2,Sean Williams,Lampasas,66.86,213.19,133.81,219.99,566.99,Single-ply,SBD,M
Boys,67.13,3,Ethan Oakes,Lampasas,66.22,181.44,108.86,190.51,480.81,Single-ply,SBD,M
Boys,67.13,4,Israel Castillo,Venus,66.41,204.12,102.06,174.63,480.81,Single-ply,SBD,M
Boys,67.13,5,Keith Ray,Stephenville,63.23,172.37,104.33,183.7,460.4,Single-ply,SBD,M
Boys,67.13,6,David Barrera,Venus,66.22,181.44,95.25,183.7,460.4,Single-ply,SBD,M
Boys,67.13,7,Elroy Castillo,Brownwood,66.22,154.22,108.86,190.51,453.59,Single-ply,SBD,M
Boys,67.13,8,Stephen Leal,Taylor,63.96,183.7,88.45,163.29,435.45,Single-ply,SBD,M
Boys,67.13,9,Ryan Jackson,Burnet,64.86,161.03,106.59,161.03,428.64,Single-ply,SBD,M
Boys,67.13,10,Osvaldo Atunez,Hillsboro,65.41,163.29,104.33,151.95,419.57,Single-ply,SBD,M
Boys,67.13,11,Raul Arizola,Smithville,64.95,156.49,102.06,156.49,415.04,Single-ply,SBD,M
Boys,67.13,DQ,Javier Solis,Wimberley,65.32,226.8,,,,Single-ply,SBD,M
Boys,74.84,1,Emanuel Silva,Venus,73.48,235.87,117.93,215.46,569.26,Single-ply,SBD,M
Boys,74.84,2,Sloan Hall,Liberty Hill,74.75,215.46,120.2,215.46,551.11,Single-ply,SBD,M
Boys,74.84,3,Adrian Castaneda,Bellville,73.57,219.99,115.67,195.04,530.7,Single-ply,SBD,M
Boys,74.84,4,Hugh Shelton,Taylor,72.94,188.24,99.79,233.6,521.63,Single-ply,SBD,M
Boys,74.84,5,Andrew Wyatt,Smithville,73.94,183.7,124.74,206.38,514.83,Single-ply,SBD,M
Boys,74.84,6,Brent Greenwood,Llano,73.21,199.58,127.01,179.17,505.76,Single-ply,SBD,M
Boys,74.84,7,Christian Yannis,Taylor,73.39,185.97,97.52,215.46,498.95,Single-ply,SBD,M
Boys,74.84,8,Nolan Keller,Llano,73.94,188.24,115.67,181.44,485.34,Single-ply,SBD,M
Boys,74.84,9,Wayne Rinn,Bellville,73.3,183.7,106.59,183.7,474,Single-ply,SBD,M
Boys,74.84,10,Bo Hart,Sealy,73.94,167.83,104.33,167.83,439.98,Single-ply,SBD,M
Boys,74.84,DQ,Matthew Kocian,Taylor,73.21,,,,,Single-ply,SBD,M
Boys,74.84,DQ,Joseph Stewart,Brookshire Royal,73.48,215.46,124.74,,,Single-ply,SBD,M
Boys,82.1,1,Mason Greenwood,Llano,81.37,222.26,140.61,229.06,591.94,Single-ply,SBD,M
Boys,82.1,2,Michael Nguyen,Lampasas,80.29,208.65,133.81,231.33,573.79,Single-ply,SBD,M
Boys,82.1,3,Landry Bolin,Liberty Hill,79.65,185.97,120.2,226.8,532.97,Single-ply,SBD,M
Boys,82.1,4,Ben Roberson,Robinson,79.29,206.38,115.67,206.38,528.44,Single-ply,SBD,M
Boys,82.1,5,Kevin Rutherford,Wimberley,81.37,192.78,117.93,210.92,521.63,Single-ply,SBD,M
Boys,82.1,6,Drake Bustamante,Bellville,81.37,199.58,117.93,199.58,517.1,Single-ply,SBD,M
Boys,82.1,7,Kalon Heim,Venus,80.01,197.31,102.06,210.92,510.29,Single-ply,SBD,M
Boys,82.1,8,Devin Lummus,Godley,78.47,190.51,117.93,195.04,503.49,Single-ply,SBD,M
Boys,82.1,9,Trace Medlin,Salado,78.38,179.17,113.4,197.31,489.88,Single-ply,SBD,M
Boys,82.1,10,John Esparza,Lampasas,78.47,174.63,129.27,181.44,485.34,Single-ply,SBD,M
Boys,82.1,11,Issac De La Cruz,Stephenville,77.47,183.7,111.13,188.24,483.08,Single-ply,SBD,M
Boys,82.1,DQ,Trey Sheppard,Salado,79.47,,,,,Single-ply,SBD,M
Boys,89.81,1,Jace Hankins,Lampasas,87.36,224.53,140.61,231.33,596.47,Single-ply,SBD,M
Boys,89.81,2,Ben Carmean,Bellville,86.64,238.14,151.95,204.12,594.21,Single-ply,SBD,M
Boys,89.81,3,Matthew Freeman,Venus,88,226.8,140.61,208.65,576.06,Single-ply,SBD,M
Boys,89.81,4,Shane Buckingham,Taylor,87.36,231.33,136.08,206.38,573.79,Single-ply,SBD,M
Boys,89.81,5,Benjamin Garza,Wimberley,88.99,226.8,136.08,208.65,571.53,Single-ply,SBD,M
Boys,89.81,6,Hunter Isham,Lorena,88.18,199.58,136.08,222.26,557.92,Single-ply,SBD,M
Boys,89.81,7,Ignacio Carmona,Hillsboro,86.09,213.19,131.54,210.92,555.65,Single-ply,SBD,M
Boys,89.81,8,Andy Becker,Liberty Hill,87.72,188.24,149.69,201.85,539.77,Single-ply,SBD,M
Boys,89.81,9,Wyatt Faulkinberry,Lorena,89.63,188.24,122.47,199.58,510.29,Single-ply,SBD,M
Boys,,NS,Ben Walling,Llano,,,,,,Single-ply,SBD,M
Boys,89.81,DQ,Ethan Thom,Liberty Hill,84.46,,,,,Single-ply,SBD,M
Boys,89.81,DQ,Jose Alcantar,Venus,86.18,,,,,Single-ply,SBD,M
Boys,89.81,DQ,Weston Brown,Gatesville,86.64,,,,,Single-ply,SBD,M
Boys,99.79,1,Ragan Wood,Stephenville,95.62,290.3,161.03,231.33,682.66,Single-ply,SBD,M
Boys,99.79,2,Kody Knowles,Liberty Hill,90.17,224.53,136.08,263.08,623.69,Single-ply,SBD,M
Boys,99.79,3,Roger Craig,Burnet,99.06,206.38,154.22,238.14,598.74,Single-ply,SBD,M
Boys,99.79,4,Chris Flores,Hillsboro,91.35,240.4,147.42,208.65,596.47,Single-ply,SBD,M
Boys,99.79,5,Mathew Carter,Liberty Hill,97.25,238.14,136.08,222.26,596.47,Single-ply,SBD,M
Boys,99.79,6,Kyle Nelson,Bellville,99.79,219.99,113.4,226.8,560.19,Single-ply,SBD,M
Boys,99.79,7,Zach Adams,Salado,97.52,219.99,133.81,192.78,546.58,Single-ply,SBD,M
Boys,99.79,8,Nathan Martin #1,Stephenville,90.45,199.58,127.01,197.31,523.9,Single-ply,SBD,M
Boys,,NS,Tanner Stroud,Glen Rose,,,,,,Single-ply,SBD,M
Boys,,NS,Logan Davison,Lorena,,,,,,Single-ply,SBD,M
Boys,99.79,DQ,Grant Cook,Alvarado,98.7,,,,,Single-ply,SBD,M
Boys,99.79,DQ,Guadalupe Silva,Venus,95.25,235.87,,,,Single-ply,SBD,M
Boys,99.79,DQ,Garrett Smith #6,Venus,94.35,197.31,,,,Single-ply,SBD,M
Boys,99.79,DQ,Jason Allen,Taylor,96.43,215.46,142.88,,,Single-ply,SBD,M
Boys,109.77,1,Dakoda Trull,Llano,108.5,290.3,167.83,251.74,709.87,Single-ply,SBD,M
Boys,109.77,2,Kyle Huppee,Liberty Hill,106.5,242.67,151.95,244.94,639.57,Single-ply,SBD,M
Boys,109.77,3,Ramiro Reyes,Hillsboro,104.87,256.28,131.54,235.87,623.69,Single-ply,SBD,M
Boys,109.77,4,Matt Willis,Glen Rose,106.59,244.94,127.01,249.48,621.42,Single-ply,SBD,M
Boys,109.77,5,Richard Rogers,Giddings,107.5,240.4,138.35,219.99,598.74,Single-ply,SBD,M
Boys,109.77,6,Cole Harroff,Alvarado,105.05,226.8,147.42,195.04,569.26,Single-ply,SBD,M
Boys,109.77,7,Hilario Rodriguez,Navasota,101.6,235.87,124.74,201.85,562.45,Single-ply,SBD,M
Boys,109.77,8,Ray Dixon,Llano,102.51,208.65,133.81,217.72,560.19,Single-ply,SBD,M
Boys,,NS,Casey Allison,Waco La Vega,,,,,,Single-ply,SBD,M
Boys,109.77,DQ,Ronald Lee,Navasota,106.68,,,,,Single-ply,SBD,M
Boys,109.77,DQ,Steven Frausto,Waco Connally,109.59,,,,,Single-ply,SBD,M
Boys,109.77,DQ,Mike Cervantes,Lorena,107.68,,,,,Single-ply,SBD,M
Boys,109.77,DQ,Bailey Cloughly,Liberty Hill,105.41,,,,,Single-ply,SBD,M
Boys,124.74,1,Justin Montgomery,Liberty Hill,114.85,272.16,163.29,231.33,666.78,Single-ply,SBD,M
Boys,124.74,2,Jairo Rodriguez,Waco La Vega,122.56,247.21,151.95,238.14,637.3,Single-ply,SBD,M
Boys,124.74,3,Kaleb Barho,Smithville,119.84,272.16,156.49,204.12,632.76,Single-ply,SBD,M
Boys,124.74,4,Jeran Gallimore,Robinson,121.47,242.67,154.22,224.53,621.42,Single-ply,SBD,M
Boys,124.74,5,Felipe Alvarado,Navasota,117.57,258.55,133.81,219.99,612.35,Single-ply,SBD,M
Boys,124.74,6,Andrew Toledo,Robinson,122.11,229.06,138.35,231.33,598.74,Single-ply,SBD,M
Boys,124.74,7,Jim Hitchcock,Gatesville,114.67,235.87,124.74,222.26,582.87,Single-ply,SBD,M
Boys,124.74,8,Colby Rogers,Burnet,119.84,226.8,122.47,208.65,557.92,Single-ply,SBD,M
Boys,124.74,9,Hunter Breaux,Bellville,123.65,215.46,165.56,176.9,557.92,Single-ply,SBD,M
Boys,124.74,10,Santana Espinoza,Brownwood,124.47,208.65,136.08,210.92,555.65,Single-ply,SBD,M
Boys,,NS,Cairi Chansler,Gatesville,,,,,,Single-ply,SBD,M
Boys,,NS,John Adam Castaneda,Fredericksburg,,,,,,Single-ply,SBD,M
Boys,124.74,DQ,Logan Begesse,China Spring,117.57,,,,,Single-ply,SBD,M
Boys,124.74+,1,David Garcia #9,Alvarado,146.06,294.84,231.33,249.48,775.64,Single-ply,SBD,M
Boys,124.74+,2,Isais Hernandez,Hillsboro,137.62,317.51,163.29,265.35,746.16,Single-ply,SBD,M
Boys,124.74+,3,Connor Barnett,Robinson,154.67,301.64,190.51,235.87,728.02,Single-ply,SBD,M
Boys,124.74+,4,Jonah Bassa,Salado,138.89,310.71,161.03,254.01,725.75,Single-ply,SBD,M
Boys,124.74+,5,Robert Gober,Waco Connally,133.63,308.44,161.03,235.87,705.34,Single-ply,SBD,M
Boys,124.74+,6,Trederek Anglin,Mexia,136.62,219.99,183.7,244.94,648.64,Single-ply,SBD,M
Boys,124.74+,7,Chris Nix,Lampasas,130.63,213.19,167.83,215.46,596.47,Single-ply,SBD,M
Boys,124.74+,8,Jaylen Tobler,Waco Connally,177.99,278.96,133.81,183.7,596.47,Single-ply,SBD,M
Boys,,NS,Demarcus Mason,Waco La Vega,,,,,,Single-ply,SBD,M
Boys,,NS,Travarius Glasker,Waco La Vega,,,,,,Single-ply,SBD,M
Boys,,NS,Henry Dawson,Waco La Vega,,,,,,Single-ply,SBD,M
Boys,124.74+,DQ,De'Mondre Wade,Brookshire Royal,126.37,,,,,Single-ply,SBD,M
